<?xml version="1.0" encoding="utf-8"?>
<!-- Generator: Adobe Illustrator 17.0.0, SVG Export Plug-In . SVG Version: 6.00 Build 0)  -->
<!DOCTYPE svg PUBLIC "-//W3C//DTD SVG 1.1//EN" "http://www.w3.org/Graphics/SVG/1.1/DTD/svg11.dtd">
<svg version="1.1" id="Capa_1" xmlns="http://www.w3.org/2000/svg" xmlns:xlink="http://www.w3.org/1999/xlink" x="0px" y="0px"
	 width="792px" height="612px" viewBox="0 0 792 612" enable-background="new 0 0 792 612" xml:space="preserve">
<g>
	<linearGradient id="SVGID_1_" gradientUnits="userSpaceOnUse" x1="395.9997" y1="542.5" x2="395.9997" y2="29.0918">
		<stop  offset="0" style="stop-color:#0D48A1"/>
		<stop  offset="1" style="stop-color:#00AEFF"/>
	</linearGradient>
	<path fill="url(#SVGID_1_)" d="M671.415,0.147H345.17c-16.892,0-30.585,13.693-30.585,30.585v140.927
		c-10.809,5.907-20.723,13.322-29.444,22.021l-54.575,54.666l-18.351-18.351c0.92-17.33-5.523-34.244-17.74-46.571
		c-23.891-23.888-62.622-23.886-86.511,0.005c-23.888,23.891-23.886,62.622,0.005,86.511c11.527,11.466,27.123,17.901,43.38,17.903
		c1.019,0,2.121-0.173,3.191-0.224l18.351,18.351l-18.351,18.351c-17.347-0.942-34.284,5.498-46.622,17.729
		c-23.891,23.888-23.894,62.62-0.005,86.511s62.62,23.894,86.511,0.005c12.219-12.326,18.662-29.24,17.74-46.571l18.351-18.351
		l54.575,54.666c8.753,8.705,18.68,16.141,29.495,22.093v140.866c0,16.892,13.693,30.585,30.585,30.585h326.244
		c16.892,0,30.585-13.693,30.585-30.585V30.732C702,13.84,688.307,0.147,671.415,0.147z M299.567,208.127
		c8.647-8.693,18.698-15.865,29.729-21.216c18.666-9.294,39.572-13.145,60.325-11.113L273.804,291.585l-4.802-4.802l-24.02-24.02
		L299.567,208.127z M194.507,269.961c4.866-4.88,8.877-10.542,11.867-16.751l0.082-0.143l9.706,9.706l-28.811,28.811l-9.675-9.675
		c0.102,0,0.184-0.122,0.285-0.173c2.319-1.169,4.56-2.486,6.708-3.945c0.663-0.438,1.397-0.775,2.039-1.234
		C189.48,274.572,192.088,272.366,194.507,269.961z M163.401,265.669c-2.063,0.628-4.174,1.092-6.311,1.387h-0.112
		c-12.687,1.779-25.475-2.48-34.562-11.51c-15.926-15.926-15.926-41.748,0-57.674c15.926-15.926,41.748-15.926,57.674,0
		c9.056,9.113,13.32,21.942,11.521,34.663c-0.568,4.021-1.751,7.931-3.507,11.592c-2.042,4.268-4.801,8.155-8.156,11.49
		c-0.856,0.867-1.815,1.57-2.732,2.355C173.166,261.426,168.471,264.043,163.401,265.669z M180.091,414.13V414.1
		c-15.926,15.926-41.748,15.926-57.674,0s-15.926-41.748,0-57.674c7.695-7.648,18.105-11.937,28.954-11.928
		c1.886,0.006,3.77,0.139,5.638,0.398h0.122c7.576,1.009,14.677,4.262,20.39,9.339c0.826,0.714,1.703,1.356,2.488,2.141
		c2.934,2.944,5.409,6.312,7.341,9.991c2.161,4.088,3.593,8.521,4.231,13.101C193.397,392.184,189.143,405.016,180.091,414.13z
		 M206.455,358.903l-0.092-0.153c-2.979-6.209-6.989-11.868-11.857-16.74c-2.419-2.411-5.031-4.621-7.81-6.606
		c-0.52-0.367-1.091-0.622-1.621-1.02c-2.28-1.561-4.664-2.966-7.137-4.2c-0.096-0.048-0.187-0.103-0.275-0.163l9.675-9.675
		l28.822,28.852L206.455,358.903z M201.765,306.001l28.811-28.811l28.811,28.811l-28.811,28.811L201.765,306.001z M299.567,403.874
		l-54.585-54.666l28.822-28.791l115.817,115.827C356.274,439.454,323.239,427.58,299.567,403.874z M681.61,295.805h-20.39v20.39
		h20.39v265.073c0,5.63-4.565,10.195-10.195,10.195H345.17c-5.63,0-10.195-4.565-10.195-10.195V449.64
		c22.392,7.955,46.529,9.657,69.816,4.924l7.952-1.519c5.531-1.055,9.159-6.395,8.103-11.926c-0.384-2.01-1.364-3.859-2.811-5.304
		L288.22,306.001l129.815-129.815c3.985-3.977,3.99-10.433,0.013-14.418c-1.445-1.448-3.294-2.428-5.304-2.811l-7.85-1.499
		c-23.329-4.729-47.508-2.987-69.918,5.036V30.732c0-5.63,4.565-10.195,10.195-10.195h326.244c5.63,0,10.195,4.565,10.195,10.195
		V295.805z"/>
	<linearGradient id="SVGID_2_" gradientUnits="userSpaceOnUse" x1="508.1673" y1="542.5" x2="508.1673" y2="29.0918">
		<stop  offset="0" style="stop-color:#0D48A1"/>
		<stop  offset="1" style="stop-color:#00AEFF"/>
	</linearGradient>
	<path fill="url(#SVGID_2_)" d="M592.841,64.305L409.328,247.817c-4.05,3.912-4.162,10.366-0.25,14.416
		c3.912,4.05,10.366,4.162,14.416,0.25c0.085-0.082,0.168-0.166,0.25-0.25L607.257,78.72c3.911-4.05,3.8-10.505-0.25-14.416
		C603.056,60.488,596.791,60.488,592.841,64.305z"/>
	<linearGradient id="SVGID_3_" gradientUnits="userSpaceOnUse" x1="467.5119" y1="542.5" x2="467.5119" y2="29.0918">
		<stop  offset="0" style="stop-color:#0D48A1"/>
		<stop  offset="1" style="stop-color:#00AEFF"/>
	</linearGradient>
	<path fill="url(#SVGID_3_)" d="M467.512,142.878c22.522,0,40.781-18.258,40.781-40.781s-18.258-40.781-40.781-40.781
		s-40.781,18.258-40.781,40.781S444.99,142.878,467.512,142.878z M467.512,81.708c11.262,0,20.39,9.128,20.39,20.39
		c0,11.262-9.128,20.39-20.39,20.39c-11.262,0-20.39-9.128-20.39-20.39C447.122,90.836,456.251,81.708,467.512,81.708z"/>
	<linearGradient id="SVGID_4_" gradientUnits="userSpaceOnUse" x1="549.0729" y1="542.5" x2="549.073" y2="29.0918">
		<stop  offset="0" style="stop-color:#0D48A1"/>
		<stop  offset="1" style="stop-color:#00AEFF"/>
	</linearGradient>
	<path fill="url(#SVGID_4_)" d="M549.073,183.659c-22.522,0-40.781,18.258-40.781,40.781s18.258,40.781,40.781,40.781
		s40.781-18.258,40.781-40.781S571.595,183.659,549.073,183.659z M549.073,244.83c-11.262,0-20.39-9.128-20.39-20.39
		c0-11.262,9.128-20.39,20.39-20.39c11.262,0,20.39,9.128,20.39,20.39C569.463,235.701,560.335,244.83,549.073,244.83z"/>
	<linearGradient id="SVGID_5_" gradientUnits="userSpaceOnUse" x1="630.634" y1="542.5" x2="630.634" y2="29.0918">
		<stop  offset="0" style="stop-color:#0D48A1"/>
		<stop  offset="1" style="stop-color:#00AEFF"/>
	</linearGradient>
	<rect x="620.439" y="295.805" fill="url(#SVGID_5_)" width="20.39" height="20.39"/>
	<linearGradient id="SVGID_6_" gradientUnits="userSpaceOnUse" x1="385.9508" y1="542.5" x2="385.9508" y2="29.0918">
		<stop  offset="0" style="stop-color:#0D48A1"/>
		<stop  offset="1" style="stop-color:#00AEFF"/>
	</linearGradient>
	<rect x="375.756" y="295.805" fill="url(#SVGID_6_)" width="20.39" height="20.39"/>
	<linearGradient id="SVGID_7_" gradientUnits="userSpaceOnUse" x1="426.7313" y1="542.5" x2="426.7313" y2="29.0918">
		<stop  offset="0" style="stop-color:#0D48A1"/>
		<stop  offset="1" style="stop-color:#00AEFF"/>
	</linearGradient>
	<rect x="416.536" y="295.805" fill="url(#SVGID_7_)" width="20.39" height="20.39"/>
	<linearGradient id="SVGID_8_" gradientUnits="userSpaceOnUse" x1="549.0729" y1="542.5" x2="549.073" y2="29.0918">
		<stop  offset="0" style="stop-color:#0D48A1"/>
		<stop  offset="1" style="stop-color:#00AEFF"/>
	</linearGradient>
	<rect x="538.878" y="295.805" fill="url(#SVGID_8_)" width="20.39" height="20.39"/>
	<linearGradient id="SVGID_9_" gradientUnits="userSpaceOnUse" x1="467.5119" y1="542.5" x2="467.5119" y2="29.0918">
		<stop  offset="0" style="stop-color:#0D48A1"/>
		<stop  offset="1" style="stop-color:#00AEFF"/>
	</linearGradient>
	<rect x="457.317" y="295.805" fill="url(#SVGID_9_)" width="20.39" height="20.39"/>
	<linearGradient id="SVGID_10_" gradientUnits="userSpaceOnUse" x1="345.1702" y1="542.5" x2="345.1702" y2="29.0918">
		<stop  offset="0" style="stop-color:#0D48A1"/>
		<stop  offset="1" style="stop-color:#00AEFF"/>
	</linearGradient>
	<rect x="334.975" y="295.805" fill="url(#SVGID_10_)" width="20.39" height="20.39"/>
	<linearGradient id="SVGID_11_" gradientUnits="userSpaceOnUse" x1="508.2924" y1="542.5" x2="508.2924" y2="29.0918">
		<stop  offset="0" style="stop-color:#0D48A1"/>
		<stop  offset="1" style="stop-color:#00AEFF"/>
	</linearGradient>
	<rect x="498.097" y="295.805" fill="url(#SVGID_11_)" width="20.39" height="20.39"/>
	<linearGradient id="SVGID_12_" gradientUnits="userSpaceOnUse" x1="589.8535" y1="542.5" x2="589.8535" y2="29.0918">
		<stop  offset="0" style="stop-color:#0D48A1"/>
		<stop  offset="1" style="stop-color:#00AEFF"/>
	</linearGradient>
	<rect x="579.658" y="295.805" fill="url(#SVGID_12_)" width="20.39" height="20.39"/>
</g>
</svg>
